<svg xmlns="http://www.w3.org/2000/svg" xmlns:xlink="http://www.w3.org/1999/xlink" width="60" height="60" viewBox="0 0 60 60">
    <defs>
        <linearGradient id="a" x1="50%" x2="50%" y1="0%" y2="100%">
            <stop offset="0%" stop-color="#FFC300"/>
            <stop offset="100%" stop-color="#FF9100"/>
        </linearGradient>
        <path id="c" d="M24 48C10.745 48 0 37.255 0 24S10.745 0 24 0s24 10.745 24 24-10.745 24-24 24zm0-4.364c10.845 0 19.636-8.791 19.636-19.636 0-10.845-8.791-19.636-19.636-19.636C13.155 4.364 4.364 13.155 4.364 24c0 10.845 8.791 19.636 19.636 19.636zm2.151-32.727h.078c.45.017.83.184 1.14.5a1.567 1.567 0 0 1 .415 1.524l-1.503 7.711h4.794c.311 0 .6.081.869.243.267.163.47.38.609.654.138.273.194.563.168.87-.026.308-.125.59-.298.846L23.12 36.425a1.819 1.819 0 0 1-.57.5c-.208.11-.441.166-.7.166-.121 0-.238-.009-.35-.026a1.1 1.1 0 0 1-.324-.102 1.7 1.7 0 0 1-.803-.73 1.525 1.525 0 0 1-.182-1.063l1.53-8.788-4.795-.025c-.311 0-.6-.081-.869-.243a1.592 1.592 0 0 1-.609-.654 1.596 1.596 0 0 1-.168-.87c.026-.308.125-.59.298-.846L24.88 11.6a.2.2 0 0 0 .04-.051.2.2 0 0 1 .038-.052c.052-.068.108-.128.168-.179a.953.953 0 0 1 .195-.128c.103-.086.211-.15.324-.192.112-.043.237-.073.376-.09h.129z"/>
        <filter id="b" width="141.7%" height="141.7%" x="-20.8%" y="-16.7%" filterUnits="objectBoundingBox">
            <feOffset dy="2" in="SourceAlpha" result="shadowOffsetOuter1"/>
            <feGaussianBlur in="shadowOffsetOuter1" result="shadowBlurOuter1" stdDeviation="3"/>
            <feColorMatrix in="shadowBlurOuter1" values="0 0 0 0 0.8 0 0 0 0 0.44 0 0 0 0 0.08 0 0 0 0.6 0"/>
        </filter>
    </defs>
    <g fill="none" fill-rule="evenodd" transform="translate(6 4)">
        <rect width="48" height="50" fill="url(#a)" rx="24"/>
        <g fill-rule="nonzero">
            <use fill="#000" filter="url(#b)" xlink:href="#c"/>
            <use fill="#FFD500" xlink:href="#c"/>
        </g>
    </g>
</svg>
